<?xml version="1.0" encoding="UTF-8"?>
<svg width="22px" height="22px" viewBox="0 0 22 22" version="1.1" xmlns="http://www.w3.org/2000/svg" xmlns:xlink="http://www.w3.org/1999/xlink">
    <!-- Generator: Sketch 43 (38999) - http://www.bohemiancoding.com/sketch -->
    <title>linkedin</title>
    <desc>Created with Sketch.</desc>
    <defs></defs>
    <g id="Page-1" stroke="none" stroke-width="1" fill="none" fill-rule="evenodd">
        <g id="Social" transform="translate(-30.000000, 0.000000)" fill-rule="nonzero">
            <g id="linkedin" transform="translate(30.000000, 0.000000)">
                <rect id="Rectangle-path" fill="#0074B9" x="0" y="0" width="21.9870219" height="21.9870219"></rect>
                <g id="Group" transform="translate(3.280702, 3.328947)" fill="#FFFFFF">
                    <path d="M1.89388158,0.010372807 C2.90091228,0.0111929825 3.73146053,0.842947368 3.72928947,1.85499561 C3.72687719,2.91471053 2.84745614,3.71341667 1.88148246,3.69040351 C0.901710526,3.71023246 0.0406710526,2.89189035 0.0408640351,1.848 C0.0408640351,0.835565789 0.874644737,0.00960087719 1.89388158,0.010372807 Z" id="Shape"></path>
                    <path d="M2.96377632,15.3165833 L0.806184211,15.3165833 C0.526166667,15.3165833 0.299171053,15.0895877 0.299171053,14.8095702 L0.299171053,5.60517544 C0.299171053,5.32515789 0.526166667,5.09816228 0.806184211,5.09816228 L2.96377632,5.09816228 C3.24379386,5.09816228 3.47078947,5.32515789 3.47078947,5.60517544 L3.47078947,14.8096184 C3.47074123,15.0895877 3.24379386,15.3165833 2.96377632,15.3165833 Z" id="Shape"></path>
                    <path d="M15.3847544,8.33114912 C15.3847544,6.40151754 13.8204868,4.83720175 11.890807,4.83720175 L11.3374298,4.83720175 C10.2817193,4.83720175 9.34903509,5.36394737 8.78803509,6.16907018 C8.72685965,6.25682895 8.6702193,6.34796491 8.61821053,6.44204386 C8.60021491,6.43934211 8.58955263,6.43794298 8.5893114,6.43842544 L8.5893114,5.30860965 C8.5893114,5.19238596 8.49508772,5.09811404 8.37881579,5.09811404 L5.68695175,5.09811404 C5.57072807,5.09811404 5.47645614,5.19233772 5.47645614,5.30860965 L5.47645614,15.1061842 C5.47645614,15.2224079 5.57063158,15.3166316 5.68685526,15.3166798 L8.43738596,15.3173553 C8.55365789,15.3174035 8.64792982,15.2231316 8.64792982,15.1068596 L8.64792982,9.44653947 C8.64792982,8.46811842 9.42830263,7.65571053 10.4066754,7.64466228 C10.906114,7.63901754 11.3588991,7.83914035 11.6852325,8.16566667 C12.0072719,8.48751316 12.2063816,8.9325307 12.2063816,9.42386404 L12.2063816,15.1075833 C12.2063816,15.223807 12.3006053,15.3180307 12.4167807,15.3180789 L15.174114,15.3187544 C15.290386,15.3188026 15.3846579,15.2245307 15.3846579,15.1082588 L15.3846579,8.33114912 L15.3847544,8.33114912 Z" id="Shape"></path>
                </g>
            </g>
        </g>
    </g>
</svg>